…
Student sum scores:

summarise(group_by(scores_tibble, student), total = sum(score))

## # A tibble: 100 x 2
##    student total
##    <chr>   <int>
##  1 1          54
##  2 10         48
##  3 100        58
##  4 11         51
##  5 12         41
##  6 13         48
##  7 14         53
##  8 15         43
##  9 16         52
## 10 17         42
## # ... with 90 more rows

Let’s get a single table with all information

scores_complete = group_by(scores_tibble, question) %>%
  mutate(question_average = mean(score)) %>%
    group_by(student) %>%
      mutate(student_total = sum(score))
scores_complete

## # A tibble: 1,000 x 5
## # Groups:   student [100]
##    student question score question_average student_total
##    <chr>   <chr>    <int>            <dbl>         <int>
##  1 1       X1           7             5.35            54
##  2 2       X1           9             5.35            62
##  3 3       X1           1             5.35            55
##  4 4       X1           1             5.35            56
##  5 5       X1           8             5.35            61
##  6 6       X1          10             5.35            61
##  7 7       X1          10             5.35            55
##  8 8       X1          10             5.35            58
##  9 9       X1           5             5.35            40
## 10 10      X1           1             5.35            48
## # ... with 990 more rows
…
