Calculate row sums and col means with tidyR | Academic
…
## # A tibble: 5 x 2
##   question  mean
##   <chr>    <dbl>
## 1 X1        8.88
## 2 X2        9.28
## 3 X3        8.54
## 4 X4       11.1 
## 5 X5       10.5

Student sum scores:

summarise(group_by(scores_tibble, student), total = sum(score))

## # A tibble: 50 x 2
##    student total
##    <chr>   <int>
##  1 1          72
##  2 10         52
##  3 11         52
##  4 12         67
##  5 13         72
##  6 14         45
##  7 15         38
##  8 16         52
##  9 17         40
## 10 18         65
## # ... with 40 more rows

Let’s get a single table with all information

scores_complete = group_by(scores_tibble, question) %>%
  mutate(question_average = mean(score)) %>%
    group_by(student) %>%
      mutate(student_total = sum(score))
scores_complete

## # A tibble: 250 x 5
## # Groups:   student [50]
##    student question score question_average student_total
##    <chr>   <chr>    <int>            <dbl>         <int>
##  1 1       X1          11             8.88            72
##  2 2       X1           3             8.88            44
##  3 3       X1          16             8.88            58
##  4 4       X1           5             8.88            48
##  5 5       X1           5             8.88            49
##  6 6       X1           1             8.88            46
##  7 7       X1          13             8.88            59
##  8 8       X1           2             8.88            42
##  9 9       X1           7             8.88            53
## 10 10      X1           7             8.88            52
## # ... with 240 more rows
…
